…
**Difficulties & Approaches**:

- A lot of asia and africa outliers (and sometimes americas), are very
  squished, i used a log scale on the y to show the different outliers

### **q3** You should have found *at least* three outliers in q2 (but possibly many more!). Identify those outliers (figure out which countries they are).

``` r
## TASK: Identify the outliers from q2
gapminder %>% 
  filter(continent == "Europe") %>% 
  arrange(gdpPercap)
```

    ## # A tibble: 360 × 6
    ##    country                continent  year lifeExp      pop gdpPercap
    ##    <fct>                  <fct>     <int>   <dbl>    <int>     <dbl>
    ##  1 Bosnia and Herzegovina Europe     1952    53.8  2791000      974.
    ##  2 Bosnia and Herzegovina Europe     1957    58.4  3076000     1354.
    ##  3 Albania                Europe     1952    55.2  1282697     1601.
    ##  4 Bosnia and Herzegovina Europe     1962    61.9  3349000     1710.
    ##  5 Albania                Europe     1957    59.3  1476505     1942.
    ##  6 Turkey                 Europe     1952    43.6 22235677     1969.
    ##  7 Bosnia and Herzegovina Europe     1967    64.8  3585000     2172.
    ##  8 Turkey                 Europe     1957    48.1 25670939     2219.
    ##  9 Albania                Europe     1962    64.8  1728137     2313.
    ## 10 Turkey                 Europe     1962    52.1 29788695     2323.
    ## # … with 350 more rows

``` r
gapminder %>% 
  filter(continent == "Asia") %>% 
  arrange(desc(gdpPercap))
```

    ## # A tibble: 396 × 6
    ##    country          continent  year lifeExp     pop gdpPercap
    ##    <fct>            <fct>     <int>   <dbl>   <int>     <dbl>
    ##  1 Kuwait           Asia       1957    58.0  212846   113523.
    ##  2 Kuwait           Asia       1972    67.7  841934   109348.
    ##  3 Kuwait           Asia       1952    55.6  160000   108382.
    ##  4 Kuwait           Asia       1962    60.5  358266    95458.
    ##  5 Kuwait           Asia       1967    64.6  575003    80895.
    ##  6 Kuwait           Asia       1977    69.3 1140357    59265.
    ##  7 Kuwait           Asia       2007    77.6 2505559    47307.
    ##  8 Singapore        Asia       2007    80.0 4553009    47143.
    ##  9 Kuwait           Asia       1997    76.2 1765345    40301.
    ## 10 Hong Kong, China Asia       2007    82.2 6980412    39725.
    ## # … with 386 more rows

``` r
gapminder %>% 
  filter(continent == "Africa") %>% 
  arrange(desc(gdpPercap))
```

    ## # A tibble: 624 × 6
    ##    country  continent  year lifeExp     pop gdpPercap
    ##    <fct>    <fct>     <int>   <dbl>   <int>     <dbl>
    ##  1 Libya    Africa     1977    57.4 2721783    21951.
    ##  2 Gabon    Africa     1977    52.8  706367    21746.
    ##  3 Libya    Africa     1972    52.8 2183877    21011.
    ##  4 Libya    Africa     1967    50.2 1759224    18773.
    ##  5 Libya    Africa     1982    62.2 3344074    17364.
    ##  6 Gabon    Africa     1982    56.6  753874    15113.
    ##  7 Gabon    Africa     1997    60.5 1126189    14723.
    ##  8 Gabon    Africa     1992    61.4  985739    13522.
    ##  9 Gabon    Africa     2007    56.7 1454867    13206.
    ## 10 Botswana Africa     2007    50.7 1639131    12570.
    ## # … with 614 more rows

``` r
gapminder %>% 
  filter(continent == "Americas") %>% 
  arrange(desc(gdpPercap))
```

    ## # A tibble: 300 × 6
    ##    country       continent  year lifeExp       pop gdpPercap
    ##    <fct>         <fct>     <int>   <dbl>     <int>     <dbl>
    ##  1 United States Americas   2007    78.2 301139947    42952.
    ##  2 United States Americas   2002    77.3 287675526    39097.
    ##  3 Canada        Americas   2007    80.7  33390141    36319.
    ##  4 United States Americas   1997    76.8 272911760    35767.
    ##  5 Canada        Americas   2002    79.8  31902268    33329.
    ##  6 United States Americas   1992    76.1 256894189    32004.
    ##  7 United States Americas   1987    75.0 242803533    29884.
    ##  8 Canada        Americas   1997    78.6  30305843    28955.
    ##  9 Canada        Americas   1987    76.9  26549700    26627.
    ## 10 Canada        Americas   1992    78.0  28523502    26343.
    ## # … with 290 more rows

``` r
gapminder %>% 
  filter(continent == "Americas") %>% 
  arrange(gdpPercap)
```

    ## # A tibble: 300 × 6
    ##    country            continent  year lifeExp     pop gdpPercap
    ##    <fct>              <fct>     <int>   <dbl>   <int>     <dbl>
    ##  1 Haiti              Americas   2007    60.9 8502814     1202.
    ##  2 Haiti              Americas   2002    58.1 7607651     1270.
    ##  3 Haiti              Americas   1997    56.7 6913545     1342.
    ##  4 Dominican Republic Americas   1952    45.9 2491346     1398.
    ##  5 Haiti              Americas   1967    46.2 4318137     1452.
    ##  6 Haiti              Americas   1992    55.1 6326682     1456.
    ##  7 Dominican Republic Americas   1957    49.8 2923186     1544.
    ##  8 Dominican Republic Americas   1967    56.8 4049146     1654.
    ##  9 Haiti              Americas   1972    48.0 4698301     1654.
    ## 10 Dominican Republic Americas   1962    53.5 3453434     1662.
    ## # … with 290 more rows
…
